…
``` r

last_plot()$data
#> # A tibble: 266 × 21
#>    country indicator   `2000` `2001` `2002` `2003` `2004` `2005` `2006` `2007`
#>    <chr>   <chr>        <dbl>  <dbl>  <dbl>  <dbl>  <dbl>  <dbl>  <dbl>  <dbl>
#>  1 ABW     SP.POP.GROW  2.54   1.77   1.19   0.997  0.901  1.00   1.18   1.23 
#>  2 AFE     SP.POP.GROW  2.58   2.59   2.61   2.62   2.64   2.67   2.70   2.75 
#>  3 AFG     SP.POP.GROW  1.44   0.743  6.45   7.54   3.93   3.58   4.14   1.79 
#>  4 AFW     SP.POP.GROW  2.75   2.80   2.81   2.82   2.83   2.84   2.83   2.83 
#>  5 AGO     SP.POP.GROW  3.24   3.29   3.34   3.41   3.51   3.56   3.59   3.64 
#>  6 ALB     SP.POP.GROW -0.637 -0.938 -0.300 -0.374 -0.418 -0.512 -0.631 -0.756
#>  7 AND     SP.POP.GROW  0.671  2.57   4.37   4.23   4.01   3.69   0.494 -2.59 
#>  8 ARB     SP.POP.GROW  2.29   2.25   2.22   2.18   2.18   2.33   2.54   2.68 
#>  9 ARE     SP.POP.GROW  5.58   5.32   5.06   4.83   4.61   6.96  13.5   18.1  
#> 10 ARG     SP.POP.GROW  1.13   1.10   1.07   1.03   1.02   1.03   1.03   1.01 
#> # ℹ 256 more rows
#> # ℹ 11 more variables: `2008` <dbl>, `2009` <dbl>, `2010` <dbl>, `2011` <dbl>,
#> #   `2012` <dbl>, `2013` <dbl>, `2014` <dbl>, `2015` <dbl>, `2016` <dbl>,
#> #   `2017` <dbl>, pop_growth <dbl>
```
…
